
<svg width="107" height="101" viewBox="0 0 107 101" fill="none" xmlns="http://www.w3.org/2000/svg">
<g clip-path="url(#clip0_305_12)">
<path opacity="0.1" d="M102.32 72.35V47.23L65.85 10.74L59.73 10.02L45.16 35.74C45.16 35.74 50.49 61.39 51.11 63.24C51.73 65.09 45.77 80.47 45.77 80.47L6.77002 83.2701L20.17 96.67C21.9777 97.0837 23.8257 97.295 25.68 97.3H77.41C80.6839 97.2974 83.9252 96.65 86.9488 95.3947C89.9724 94.1394 92.7192 92.3009 95.0323 89.984C97.3455 87.6672 99.1796 84.9175 100.43 81.8918C101.68 78.8662 102.323 75.6239 102.32 72.35V72.35Z" fill="black"/>
<path d="M18.91 89.48H70.65C74.489 89.4684 78.2572 88.4456 81.5751 86.5145C84.8931 84.5834 87.6437 81.8122 89.55 78.48C88.9362 76.8395 88.1163 75.2837 87.11 73.85C83.6 69.14 61.47 62.13 60.5 61.35C59.0447 59.7661 57.6856 58.0965 56.43 56.35H56.22V51.76C57.3899 50.2977 58.3959 48.7116 59.22 47.03C59.8265 45.302 60.2128 43.5045 60.37 41.68C64.01 40.01 64.45 34.18 64.61 30.92C64.67 29.53 64.1 29.24 63.39 29.4C63.54 28.85 63.66 28.35 63.74 27.91C64.8379 24.0505 65.3006 20.0381 65.11 16.03L66.65 16.09C64.4353 11.9926 61.1879 8.54534 57.23 6.09L59.09 6.01999C55.2194 2.94269 50.5115 1.10275 45.58 0.73999L46.58 -0.0200195C41.9898 0.7785 37.7189 2.85849 34.26 5.97998C33.1798 5.47483 32.0411 5.10538 30.87 4.88C31.43 5.38 32 5.87999 32.57 6.35999C29.8717 6.6498 27.3084 7.68899 25.17 9.35999L26.8 9.5C24.6022 11.9813 22.8132 14.7965 21.5 17.84L23.19 17.62C23.9307 21.3196 24.8992 24.9698 26.09 28.55C26.09 28.69 26.09 28.82 26.04 28.95C26.0149 29.1123 26.0149 29.2776 26.04 29.44C25.42 29.37 24.95 29.72 25.04 30.99C25.19 34.26 25.63 40.09 29.28 41.76C29.4382 43.5811 29.8245 45.3752 30.43 47.1C31.2387 48.7381 32.2174 50.2866 33.35 51.72V56.42H33.14C31.8877 58.1689 30.5284 59.8388 29.07 61.42C28.07 62.2 5.98003 69.21 2.47003 73.92C1.45655 75.3509 0.632992 76.9072 0.0200195 78.55C1.93435 81.8677 4.68725 84.6239 8.00269 86.5423C11.3181 88.4607 15.0796 89.4737 18.91 89.48Z" fill="#FAFAFA"/>
</g>
<defs>
<clipPath id="clip0_305_12">
<rect width="106.31" height="100.27" fill="white"/>
</clipPath>
</defs>
</svg>
